[
  {
    "model": "main.Zone",
    "pk": 0,
    "fields": {
      "nom": "Les Orties - Escalier A",
      "surface": 411,
      "usage": 1,
      "batiment": 0
    }
  },
  {
    "model": "main.Zone",
    "pk": 1,
    "fields": {
      "nom": "Les Orties - Escalier B",
      "surface": 189,
      "usage": 1,
      "batiment": 0
    }
  },
  {
    "model": "main.Zone",
    "pk": 2,
    "fields": {
      "nom": "Les Orties - Crêche",
      "surface": 170,
      "usage": 4,
      "batiment": 0
    }
  },
  {
    "model": "main.Zone",
    "pk": 3,
    "fields": {
      "nom": "Restaurant Du Pain Aux Orties",
      "surface": 215,
      "usage": 4,
      "batiment": 0
    }
  },
  {
    "model": "main.Zone",
    "pk": 4,
    "fields": {
      "nom": "Entreprise D",
      "surface": 1243,
      "usage": 2,
      "batiment": 1
    }
  },
  {
    "model": "main.Zone",
    "pk": 5,
    "fields": {
      "nom": "Espace de coworking - DLab",
      "surface": 812,
      "usage": 2,
      "batiment": 1
    }
  },
  {
    "model": "main.Zone",
    "pk": 6,
    "fields": {
      "nom": "Sport & Co",
      "surface": 620,
      "usage": 3,
      "batiment": 2
    }
  }
]
