[
    {
      "model": "main.zoneelement",
      "pk": 1,
      "fields": {
        "zone": 0,
        "element": 10632,
        "quantity": 175.6
      }
    },
    {
      "model": "main.zoneelement",
      "pk": 2,
      "fields": {
        "zone": 0,
        "element": 12454,
        "quantity": 175.6
      }
    },
    {
      "model": "main.zoneelement",
      "pk": 3,
      "fields": {
        "zone": 0,
        "element": 6396,
        "quantity": 283.6
      }
    },
    {
      "model": "main.zoneelement",
      "pk": 4,
      "fields": {
        "zone": 0,
        "element": 13428,
        "quantity": 152.1
      }
    },
    {
      "model": "main.zoneelement",
      "pk": 5,
      "fields": {
        "zone": 0,
        "element": 18614,
        "quantity": 234.3
      }
    },
    {
      "model": "main.zoneelement",
      "pk": 6,
      "fields": {
        "zone": 0,
        "element": 16233,
        "quantity": 6.1
      }
    },
    {
      "model": "main.zoneelement",
      "pk": 7,
      "fields": {
        "zone": 0,
        "element": 8101,
        "quantity": 370
      }
    },
    {
      "model": "main.zoneelement",
      "pk": 8,
      "fields": {
        "zone": 0,
        "element": 7993,
        "quantity": 49.3
      }
    },
    {
      "model": "main.zoneelement",
      "pk": 9,
      "fields": {
        "zone": 1,
        "element": 10632,
        "quantity": 79.3
      }
    },
    {
      "model": "main.zoneelement",
      "pk": 10,
      "fields": {
        "zone": 1,
        "element": 12454,
        "quantity": 85.2
      }
    },
    {
      "model": "main.zoneelement",
      "pk": 11,
      "fields": {
        "zone": 1,
        "element": 6396,
        "quantity": 130.7
      }
    },
    {
      "model": "main.zoneelement",
      "pk": 12,
      "fields": {
        "zone": 1,
        "element": 13428,
        "quantity": 59.4
      }
    },
    {
      "model": "main.zoneelement",
      "pk": 13,
      "fields": {
        "zone": 1,
        "element": 18614,
        "quantity": 106.9
      }
    },
    {
      "model": "main.zoneelement",
      "pk": 14,
      "fields": {
        "zone": 1,
        "element": 16233,
        "quantity": 5.9
      }
    },
    {
      "model": "main.zoneelement",
      "pk": 15,
      "fields": {
        "zone": 1,
        "element": 8101,
        "quantity": 292.3
      }
    },
    {
      "model": "main.zoneelement",
      "pk": 16,
      "fields": {
        "zone": 1,
        "element": 7993,
        "quantity": 24
      }
    },
    {
      "model": "main.zoneelement",
      "pk": 17,
      "fields": {
        "zone": 2,
        "element": 10632,
        "quantity": 74.8
      }
    },
    {
      "model": "main.zoneelement",
      "pk": 18,
      "fields": {
        "zone": 2,
        "element": 12454,
        "quantity": 83.6
      }
    },
    {
      "model": "main.zoneelement",
      "pk": 47,
      "fields": {
        "zone": 6,
        "element": 10806,
        "quantity": 62
      }
    },
    {
      "model": "main.zoneelement",
      "pk": 48,
      "fields": {
        "zone": 6,
        "element": 25781,
        "quantity": 608.3
      }
    }
  ]